<?xml version="1.0" encoding="UTF-8" standalone="no"?><svg xmlns="http://www.w3.org/2000/svg" xmlns:xlink="http://www.w3.org/1999/xlink" contentScriptType="application/ecmascript" contentStyleType="text/css" height="433px" preserveAspectRatio="none" style="width:475px;height:433px;" version="1.1" viewBox="0 0 475 433" width="475px" zoomAndPan="magnify"><defs><filter height="300%" id="fwaqdg35yt7f2" width="300%" x="-1" y="-1"><feGaussianBlur result="blurOut" stdDeviation="2.0"/><feColorMatrix in="blurOut" result="blurOut2" type="matrix" values="0 0 0 0 0 0 0 0 0 0 0 0 0 0 0 0 0 0 .4 0"/><feOffset dx="4.0" dy="4.0" in="blurOut2" result="blurOut3"/><feBlend in="SourceGraphic" in2="blurOut3" mode="normal"/></filter></defs><g><ellipse cx="259" cy="20" fill="#000000" filter="url(#fwaqdg35yt7f2)" rx="10" ry="10" style="stroke: none; stroke-width: 1.0;"/><rect fill="#FEFECE" filter="url(#fwaqdg35yt7f2)" height="33.9688" rx="12.5" ry="12.5" style="stroke: #A80036; stroke-width: 1.5;" width="68" x="225" y="50"/><text fill="#000000" font-family="sans-serif" font-size="12" lengthAdjust="spacingAndGlyphs" textLength="48" x="235" y="71.1387">Jugador</text><polygon fill="#FEFECE" filter="url(#fwaqdg35yt7f2)" points="259,103.9688,259,103.9688,271,115.9688,259,127.9688,259,127.9688,247,115.9688,259,103.9688" style="stroke: #A80036; stroke-width: 1.5;"/><rect fill="#000000" filter="url(#fwaqdg35yt7f2)" height="6" rx="2.5" ry="2.5" style="stroke: #000000; stroke-width: 1.0;" width="216" x="36" y="185.9688"/><rect fill="#FEFECE" filter="url(#fwaqdg35yt7f2)" height="33.9688" rx="12.5" ry="12.5" style="stroke: #A80036; stroke-width: 1.5;" width="90" x="50" y="211.9688"/><text fill="#000000" font-family="sans-serif" font-size="12" lengthAdjust="spacingAndGlyphs" textLength="70" x="60" y="233.1074">Movimiento</text><rect fill="#FEFECE" filter="url(#fwaqdg35yt7f2)" height="33.9688" rx="12.5" ry="12.5" style="stroke: #A80036; stroke-width: 1.5;" width="70" x="168" y="211.9688"/><text fill="#000000" font-family="sans-serif" font-size="12" lengthAdjust="spacingAndGlyphs" textLength="50" x="178" y="233.1074">Bombas</text><rect fill="#000000" filter="url(#fwaqdg35yt7f2)" height="6" rx="2.5" ry="2.5" style="stroke: #000000; stroke-width: 1.0;" width="216" x="36" y="265.9375"/><polygon fill="#FEFECE" filter="url(#fwaqdg35yt7f2)" points="132,137.9688,156,137.9688,168,149.9688,156,161.9688,132,161.9688,120,149.9688,132,137.9688" style="stroke: #A80036; stroke-width: 1.5;"/><text fill="#000000" font-family="sans-serif" font-size="11" lengthAdjust="spacingAndGlyphs" textLength="23" x="132.5" y="153.7769">Vivo</text><rect fill="#FEFECE" filter="url(#fwaqdg35yt7f2)" height="33.9688" rx="12.5" ry="12.5" style="stroke: #A80036; stroke-width: 1.5;" width="94" x="97" y="318.9688"/><text fill="#000000" font-family="sans-serif" font-size="12" lengthAdjust="spacingAndGlyphs" textLength="74" x="107" y="340.1074">Fin del Nivel</text><rect fill="#FEFECE" filter="url(#fwaqdg35yt7f2)" height="33.9688" rx="12.5" ry="12.5" style="stroke: #A80036; stroke-width: 1.5;" width="77" x="335.5" y="137.9688"/><text fill="#000000" font-family="sans-serif" font-size="12" lengthAdjust="spacingAndGlyphs" textLength="57" x="345.5" y="159.1074">Contacto</text><rect fill="#000000" filter="url(#fwaqdg35yt7f2)" height="6" rx="2.5" ry="2.5" style="stroke: #000000; stroke-width: 1.0;" width="180" x="284" y="206.9375"/><rect fill="#FEFECE" filter="url(#fwaqdg35yt7f2)" height="33.9688" rx="12.5" ry="12.5" style="stroke: #A80036; stroke-width: 1.5;" width="45" x="298" y="232.9375"/><text fill="#000000" font-family="sans-serif" font-size="12" lengthAdjust="spacingAndGlyphs" textLength="25" x="308" y="254.0762">NPC</text><rect fill="#FEFECE" filter="url(#fwaqdg35yt7f2)" height="33.9688" rx="12.5" ry="12.5" style="stroke: #A80036; stroke-width: 1.5;" width="79" x="371" y="232.9375"/><text fill="#000000" font-family="sans-serif" font-size="12" lengthAdjust="spacingAndGlyphs" textLength="59" x="381" y="254.0762">Explosión</text><rect fill="#000000" filter="url(#fwaqdg35yt7f2)" height="6" rx="2.5" ry="2.5" style="stroke: #000000; stroke-width: 1.0;" width="180" x="284" y="286.9063"/><rect fill="#FEFECE" filter="url(#fwaqdg35yt7f2)" height="33.9688" rx="12.5" ry="12.5" style="stroke: #A80036; stroke-width: 1.5;" width="100" x="324" y="315.9375"/><text fill="#000000" font-family="sans-serif" font-size="12" lengthAdjust="spacingAndGlyphs" textLength="80" x="334" y="337.0762">Fin del Juego</text><polygon fill="#FEFECE" filter="url(#fwaqdg35yt7f2)" points="259,358.9375,271,370.9375,259,382.9375,247,370.9375,259,358.9375" style="stroke: #A80036; stroke-width: 1.5;"/><ellipse cx="259" cy="412.9375" fill="#FFFFFF" filter="url(#fwaqdg35yt7f2)" rx="10" ry="10" style="stroke: #000000; stroke-width: 1.5;"/><line style="stroke: #000000; stroke-width: 2.5;" x1="252.8128" x2="265.1872" y1="406.7503" y2="419.1247"/><line style="stroke: #000000; stroke-width: 2.5;" x1="265.1872" x2="252.8128" y1="406.7503" y2="419.1247"/><line style="stroke: #A80036; stroke-width: 1.5;" x1="259" x2="259" y1="30" y2="50"/><polygon fill="#A80036" points="255,40,259,50,263,40,259,44" style="stroke: #A80036; stroke-width: 1.0;"/><line style="stroke: #A80036; stroke-width: 1.5;" x1="95" x2="95" y1="191.9688" y2="211.9688"/><polygon fill="#A80036" points="91,201.9688,95,211.9688,99,201.9688,95,205.9688" style="stroke: #A80036; stroke-width: 1.0;"/><line style="stroke: #A80036; stroke-width: 1.5;" x1="203" x2="203" y1="191.9688" y2="211.9688"/><polygon fill="#A80036" points="199,201.9688,203,211.9688,207,201.9688,203,205.9688" style="stroke: #A80036; stroke-width: 1.0;"/><line style="stroke: #A80036; stroke-width: 1.5;" x1="95" x2="95" y1="245.9375" y2="265.9375"/><polygon fill="#A80036" points="91,255.9375,95,265.9375,99,255.9375,95,259.9375" style="stroke: #A80036; stroke-width: 1.0;"/><line style="stroke: #A80036; stroke-width: 1.5;" x1="203" x2="203" y1="245.9375" y2="265.9375"/><polygon fill="#A80036" points="199,255.9375,203,265.9375,207,255.9375,203,259.9375" style="stroke: #A80036; stroke-width: 1.0;"/><line style="stroke: #A80036; stroke-width: 1.5;" x1="144" x2="144" y1="161.9688" y2="185.9688"/><polygon fill="#A80036" points="140,175.9688,144,185.9688,148,175.9688,144,179.9688" style="stroke: #A80036; stroke-width: 1.0;"/><line style="stroke: #A80036; stroke-width: 1.5;" x1="144" x2="144" y1="271.9375" y2="283.9375"/><line style="stroke: #A80036; stroke-width: 1.5;" x1="144" x2="264" y1="283.9375" y2="283.9375"/><polygon fill="#A80036" points="260,226.9531,264,216.9531,268,226.9531,264,222.9531" style="stroke: #A80036; stroke-width: 1.5;"/><line style="stroke: #A80036; stroke-width: 1.5;" x1="264" x2="264" y1="149.9688" y2="283.9375"/><line style="stroke: #A80036; stroke-width: 1.5;" x1="264" x2="168" y1="149.9688" y2="149.9688"/><polygon fill="#A80036" points="178,145.9688,168,149.9688,178,153.9688,174,149.9688" style="stroke: #A80036; stroke-width: 1.0;"/><line style="stroke: #A80036; stroke-width: 1.5;" x1="120" x2="24" y1="149.9688" y2="149.9688"/><polygon fill="#A80036" points="20,212.9531,24,222.9531,28,212.9531,24,216.9531" style="stroke: #A80036; stroke-width: 1.5;"/><line style="stroke: #A80036; stroke-width: 1.5;" x1="24" x2="24" y1="149.9688" y2="295.9375"/><line style="stroke: #A80036; stroke-width: 1.5;" x1="24" x2="144" y1="295.9375" y2="295.9375"/><line style="stroke: #A80036; stroke-width: 1.5;" x1="144" x2="144" y1="295.9375" y2="318.9688"/><polygon fill="#A80036" points="140,308.9688,144,318.9688,148,308.9688,144,312.9688" style="stroke: #A80036; stroke-width: 1.0;"/><line style="stroke: #A80036; stroke-width: 1.5;" x1="320.5" x2="320.5" y1="212.9375" y2="232.9375"/><polygon fill="#A80036" points="316.5,222.9375,320.5,232.9375,324.5,222.9375,320.5,226.9375" style="stroke: #A80036; stroke-width: 1.0;"/><line style="stroke: #A80036; stroke-width: 1.5;" x1="410.5" x2="410.5" y1="212.9375" y2="232.9375"/><polygon fill="#A80036" points="406.5,222.9375,410.5,232.9375,414.5,222.9375,410.5,226.9375" style="stroke: #A80036; stroke-width: 1.0;"/><line style="stroke: #A80036; stroke-width: 1.5;" x1="320.5" x2="320.5" y1="266.9063" y2="286.9063"/><polygon fill="#A80036" points="316.5,276.9063,320.5,286.9063,324.5,276.9063,320.5,280.9063" style="stroke: #A80036; stroke-width: 1.0;"/><line style="stroke: #A80036; stroke-width: 1.5;" x1="410.5" x2="410.5" y1="266.9063" y2="286.9063"/><polygon fill="#A80036" points="406.5,276.9063,410.5,286.9063,414.5,276.9063,410.5,280.9063" style="stroke: #A80036; stroke-width: 1.0;"/><line style="stroke: #A80036; stroke-width: 1.5;" x1="374" x2="374" y1="171.9375" y2="206.9375"/><polygon fill="#A80036" points="370,196.9375,374,206.9375,378,196.9375,374,200.9375" style="stroke: #A80036; stroke-width: 1.0;"/><line style="stroke: #A80036; stroke-width: 1.5;" x1="374" x2="374" y1="292.9063" y2="315.9375"/><polygon fill="#A80036" points="370,305.9375,374,315.9375,378,305.9375,374,309.9375" style="stroke: #A80036; stroke-width: 1.0;"/><line style="stroke: #A80036; stroke-width: 1.5;" x1="247" x2="144" y1="115.9688" y2="115.9688"/><line style="stroke: #A80036; stroke-width: 1.5;" x1="144" x2="144" y1="115.9688" y2="137.9688"/><polygon fill="#A80036" points="140,127.9688,144,137.9688,148,127.9688,144,131.9688" style="stroke: #A80036; stroke-width: 1.0;"/><line style="stroke: #A80036; stroke-width: 1.5;" x1="271" x2="374" y1="115.9688" y2="115.9688"/><line style="stroke: #A80036; stroke-width: 1.5;" x1="374" x2="374" y1="115.9688" y2="137.9688"/><polygon fill="#A80036" points="370,127.9688,374,137.9688,378,127.9688,374,131.9688" style="stroke: #A80036; stroke-width: 1.0;"/><line style="stroke: #A80036; stroke-width: 1.5;" x1="144" x2="144" y1="352.9375" y2="370.9375"/><line style="stroke: #A80036; stroke-width: 1.5;" x1="144" x2="247" y1="370.9375" y2="370.9375"/><polygon fill="#A80036" points="237,366.9375,247,370.9375,237,374.9375,241,370.9375" style="stroke: #A80036; stroke-width: 1.0;"/><line style="stroke: #A80036; stroke-width: 1.5;" x1="374" x2="374" y1="349.9063" y2="370.9375"/><line style="stroke: #A80036; stroke-width: 1.5;" x1="374" x2="271" y1="370.9375" y2="370.9375"/><polygon fill="#A80036" points="281,366.9375,271,370.9375,281,374.9375,277,370.9375" style="stroke: #A80036; stroke-width: 1.0;"/><line style="stroke: #A80036; stroke-width: 1.5;" x1="259" x2="259" y1="83.9688" y2="103.9688"/><polygon fill="#A80036" points="255,93.9688,259,103.9688,263,93.9688,259,97.9688" style="stroke: #A80036; stroke-width: 1.0;"/><line style="stroke: #A80036; stroke-width: 1.5;" x1="259" x2="259" y1="382.9375" y2="402.9375"/><polygon fill="#A80036" points="255,392.9375,259,402.9375,263,392.9375,259,396.9375" style="stroke: #A80036; stroke-width: 1.0;"/><!--
@startuml
start
:Jugador;
if () then
while (Vivo)
fork
  :Movimiento;
fork again
  :Bombas;
end fork
endwhile
:Fin del Nivel;
else
:Contacto;
fork
  :NPC;
fork again
  :Explosión;
end fork
:Fin del Juego;
endif
end
@enduml

PlantUML version 1.2019.04(Fri Mar 29 15:44:36 UTC 2019)
(GPL source distribution)
Java Runtime: OpenJDK Runtime Environment
JVM: OpenJDK 64-Bit Server VM
Java Version: 1.8.0_201-heroku-b09
Operating System: Linux
OS Version: 4.4.0-1048-aws
Default Encoding: UTF-8
Language: en
Country: US
--></g></svg>